{
  // Database configs
  "DatabaseSettings": {
    "host": "localhost",
    "user": "root",
    "password": "root",
    "database": "template",
    "port": 8889,
    "connectionLimit":50
  },
  "PORT":8000
}